<?xml version="1.0" encoding="utf-8"?>
<!-- Generator: Adobe Illustrator 19.0.0, SVG Export Plug-In . SVG Version: 6.00 Build 0)  -->
<svg version="1.1" id="Layer_1" xmlns:sketch="http://www.bohemiancoding.com/sketch/ns"
	 xmlns="http://www.w3.org/2000/svg" xmlns:xlink="http://www.w3.org/1999/xlink" x="0px" y="0px" viewBox="-281 373 48 48"
	 style="enable-background:new -281 373 48 48;" xml:space="preserve">
<style type="text/css">
	.st0{filter:url(#filter-2);}
	.st1{opacity:0.75;fill:url(#SVGID_1_);}
	.st2{fill:url(#SVGID_2_);stroke:#FFFFFF;stroke-width:0.5;}
	.st3{fill:#FFFFFF;}
	.st4{fill:none;}
	.st5{font-family:'MyriadPro-Regular';}
	.st6{font-size:25px;}
</style>
<filter  height="200%" y="-50%" width="200%" id="filter-2" x="-50%" filterUnits="objectBoundingBox">
	<feGaussianBlur  in="SourceGraphic" result="blur" stdDeviation="2.07261029"></feGaussianBlur>
</filter>
<title>Arrow_5</title>
<desc>Created with Sketch.</desc>
<g id="Page-1_1_" sketch:type="MSPage">
	<g id="Arrow_5" sketch:type="MSArtboardGroup">
		<g id="Bulle-01" transform="translate(2.000000, 4.000000)" sketch:type="MSLayerGroup">
			<g id="Ombre" transform="translate(0.000000, 17.000000)" sketch:type="MSShapeGroup" class="st0">
				<g id="Triangle-1_2_">
					<g>
						
							<linearGradient id="SVGID_1_" gradientUnits="userSpaceOnUse" x1="-556.818" y1="756.1364" x2="-556.818" y2="755.1364" gradientTransform="matrix(42.0532 0 0 -22 23156.3867 17008)">
							<stop  offset="0" style="stop-color:#000000;stop-opacity:0"/>
							<stop  offset="1" style="stop-color:#000000"/>
						</linearGradient>
						<path class="st1" d="M-256,395l-4.3-6h-6.7c-4.2,0-8.8-2.2-10.1-4.8l-3.2-6.4c-1.3-2.7,2-4.8,7.4-4.8h25
							c5.4,0,9.6,2.2,9.3,4.8l-0.6,6.4c-0.3,2.7-3.9,4.8-8.2,4.8h-6.6L-256,395z"/>
					</g>
				</g>
			</g>
			<g id="Bulle" transform="translate(2.000000, 0.000000)" sketch:type="MSShapeGroup">
				<g id="Triangle-1_1_">
					
						<linearGradient id="SVGID_2_" gradientUnits="userSpaceOnUse" x1="-558.475" y1="780.9897" x2="-558.475" y2="779.3669" gradientTransform="matrix(40 0 0 -40 22078 31602)">
						<stop  offset="0" style="stop-color:#FF6784"/>
						<stop  offset="1" style="stop-color:#620043"/>
					</linearGradient>
					<path class="st2" d="M-257.4,402.2L-261,413l-3.6-10.8h-7.5c-5,0-9-4-9-9V382c0-5,4-9,9-9h22c5,0,9,4,9,9v11.1c0,5-4,9-9,9
						H-257.4z"/>
				</g>
			</g>
		</g>
		<path id="Page-1" sketch:type="MSShapeGroup" class="st3" d="M-256.2,399.2l-1.5-6.2l-6.1-1.5l12.1-4.4L-256.2,399.2z M-257,382
			c-5.5,0-10,4.5-10,10s4.5,10,10,10c5.5,0,10-4.5,10-10S-251.5,382-257,382L-257,382z"/>
	</g>
</g>
<rect x="-263.8" y="386.3" class="st3" width="12.8" height="12.9"/>
<rect x="-263.1" y="382" class="st4" width="18.6" height="20.1"/>
<text transform="matrix(1 0 0 1 -263.1059 399.7188)" class="st5 st6">5</text>
</svg>
